{
  "stg": {
    "msdeploypath": "C:\\Program Files\\IIS\\Microsoft Web Deploy V3\\msdeploy.exe",
    "source": "C:\\jenkins\\workspace\\core1_STG\\publish",
    "dest": "stgsite",
    "computername": "devops-winserv/MSDEPLOYAGENTSERVICE",
    "ConnectionStrings": {
      "WFPoCDB": "Server=(stgdb)\\ProjectsV13;Database=WFPoCDB;Trusted_Connection=True;"
    }
  },
  "dev": {
    "msdeploypath": "C:\\Program Files\\IIS\\Microsoft Web Deploy V3\\msdeploy.exe",
    "source": "C:\\jenkins\\workspace\\buildjob\\publish",
    "dest": "devsite.com",
    "computername": "",
    "ConnectionStrings": {
      "WFPoCDB": "Server=(devdb)\\ProjectsV13;Database=WFPoCDB;Trusted_Connection=True;"
    }

  }
}
